{
  "required": true,
  "minVersion": "0.8",
  "package": "me.divine.totemcolor.mixin",
  "compatibilityLevel": "JAVA_17",
  "mixins": [
  ],
  "client": [
    "TotemParticleMixin"
  ],
  "injectors": {
    "defaultRequire": 1
  }
}
